R para jurimetria
…
  select(id_lawsuit, district, dt_decision, court) %>% 
  mutate(ano_julgamento = year(dmy(dt_decision)),
         ano_proc = str_sub(id_lawsuit, 12, 15),
         ano_proc = as.numeric(ano_proc)) %>% 
  mutate(tempo_anos = ano_julgamento - ano_proc) %>% 
  arrange(desc(tempo_anos)) %>% 
  group_by(district, court) %>% 
  summarise(n = n(),
            media_anos = mean(tempo_anos),
            min_anos = min(tempo_anos),
            max_anos = max(tempo_anos)) %>% 
  filter(n > 5) %>% 
  arrange(desc(media_anos))

#> # A tibble: 406 x 6
#> # Groups:   district [60]
#>    district              court                   n media_a… min_an… max_a…
#>    <chr>                 <chr>               <int>    <dbl>   <dbl>  <dbl>
#>  1 Osasco                16ª Câmara de Dire…     6     5.67    0     20.0 
#>  2 Tatuí                 15ª Câmara de Dire…     8     4.62    0     12.0 
#>  3 São Bernardo do Campo 3ª Câmara de Direi…     8     4.38    0     28.0 
#>  4 Botucatu              16ª Câmara de Dire…    10     4.10    0     15.0 
#>  5 Mogi das Cruzes       9ª Câmara de Direi…     7     3.71    0      7.00
#>  6 Tatuí                 2ª Câmara de Direi…     6     3.67    0     10.0 
#>  7 Avaré                 13ª Câmara de Dire…     8     3.62    0     11.0 
#>  8 Guarujá               5ª Câmara de Direi…     6     3.50    0     10.0 
#>  9 Praia Grande          2ª Câmara de Direi…     6     3.33    1.00   7.00
#> 10 Mogi das Cruzes       4ª Câmara de Direi…     6     3.00    0      7.00
#> # ... with 396 more rows
…
